05-rupture-risk-10 Rationale and Explanation
…
maindata %>% 
  mutate(pub = as.integer(pub),
         start = as.integer(start),
         end = as.integer(end), 
         psah = as.double(psah),
         fu = as.double(fu),
         nos_select = as.double(nos_select),
         nos_outcome = as.double(nos_outcome),
         nos_compare = as.double(nos_compare),
         nos_outcome = as.double(nos_outcome),
         country = as.factor(country),
         type = as.factor(type)
         )

## # A tibble: 124 x 29
##    auth    pub start   end country type  num_tot fem_tot fam_tot multi_tot
##    <chr> <int> <int> <int> <fct>   <fct>   <dbl>   <dbl>   <dbl>     <dbl>
##  1 Bor    2015    NA    NA Intern pros     363     280      72       163
##  2 Bor    2015    NA    NA Intern pros     363     280      72       163
##  3 Bor    2015    NA    NA Intern pros     363     280      72       163
##  4 Bor    2015    NA    NA Intern pros     363     280      72       163
##  5 Brod  2009    NA    NA Intern pros     113      75     113        NA
##  6 Brod  2009    NA    NA Intern pros     113      75     113        NA
##  7 Brod  2009    NA    NA Intern pros     113      75     113        NA
##  8 Brod  2009    NA    NA Intern pros     113      75     113        NA
##  9 Burns  2009  1987  2006 United retr     165     120      20        46
## 10 Burns  2009  1987  2006 United retr     165     120      20        46
## #  with 114 more rows, and 19 more variables: age_mean <dbl>, age_med <dbl>,
## #   num_anr_tot <dbl>, psah_tot <dbl>, smoke_tot <dbl>, fu_mean_tot <dbl>,
## #   fu_med_tot <dbl>, size <dbl>, num <dbl>, num_anr <dbl>, psah <dbl>,
## #   fu <dbl>, rupt <dbl>, rupt_psah <dbl>, rupt_fatal <dbl>, nos_select <dbl>,
## #   nos_compare <dbl>, nos_outcome <dbl>, nos_total <lgl>
…
